{
  "meta": {
    "pagination": {
      "total": 1528,
      "pages": 77,
      "page": 1,
      "limit": 20,
      "links": {
        "previous": null,
        "current": "https://gorest.co.in/public/v1/posts?page=1",
        "next": "https://gorest.co.in/public/v1/posts?page=2"
      }
    }
  },
  "data": [
    {
      "id": 11,
      "user_id": 11,
      "title": "Excepturi amiculum curis tracto teres dedico sunt dolorem copiose victus deleo usus suffragium amissio.",
      "body": "Carus tricesimus sed. Suggero vacuus tollo. Beatus deprimo sit. Abeo volo crustulum. Sollers est crux. Admoveo quibusdam tergum. Amitto virtus facere. Desipio illo civitas. Quis subito tantillus. Decretum veritas quasi. Crapula provident triginta. Pecus benevolentia caute. Deprimo enim antea. Ea clementia sollicito. Aut alveus quia. Aperte voluptatem articulus. Caelestis delectatio alveus. Annus argentum cavus. Molestiae terga arbor. Delectus concido capillus. Theca vito armarium. Approbo animus canis. Curatio delibero talio."
    },
    {
      "id": 12,
      "user_id": 11,
      "title": "Viduata adinventitias antea vesper turba quam aggredior viduo totam demergo eveniet.",
      "body": "Vaco perspiciatis adnuo. Illo verto asper. Voco tepidus et. Accipio desidero conatus. Sollers tubineus apud. Conitor abscido spero. Ut tergo varietas. Congregatio convoco dicta. Cedo certus id. Vesica vapulus tutamen. Vita demergo et. Excepturi ager magnam. In temperantia pel. Neque cupiditas apto. Vivo ad armo. Cur contra amita. Eum ocer capto. Solutio vae virgo. Credo copia summa. Atqui alias corona."
    },
    {
      "id": 14,
      "user_id": 15,
      "title": "Solium eum ter defero cubitum vis.",
      "body": "Venio contabesco delectatio. Curiositas vel asperiores. Conitor decretum aqua. Conventus fugit angustus. Acquiro amor desipio. Acerbitas calcar video. Ultio dedico vito. Surculus dolorem traho. Ocer sollicito demens. Iusto verbum vacuus. Cena maiores casso. Solvo adulescens eius. Curo tergo subiungo. Sint et communis. Adnuo vitiosus toties. Villa cresco eligendi. Acerbitas cuius vorago. Patrocinor timor aggero. Caritas terga adduco. Tener patior crepusculum. Uterque ex tredecim. Peior et condico. Qui curo totidem. Torqueo coniuratio cotidie. Calcar acerbitas valde. Abduco facilis dolorem. Coepi antea tardus. Comparo vehemens et."
    },
    {
      "id": 18,
      "user_id": 19,
      "title": "Deficio amet tempore calco spiculum aestivus sono quia adficio absens super talio tyrannus adhuc aut.",
      "body": "Spectaculum provident caelestis. Et sperno velit. Quo balbus tenus. Suadeo subiungo peior. Bellum celer cohaero. Apud depraedor deorsum. Conventus adipiscor amissio. Cenaculum minima est. Magni ait defungo. Aut crinis defaeco. Chirographum valens considero. Cavus in cogito. Canto conor amet. Utilis cohibeo quia. Auctor textilis tempus. Canis cernuus volubilis. Sunt vel decumbo. Approbo perferendis acervus. Decipio voluptas nesciunt. Clam cerno aequus. Illum tepesco totidem. Cohaero calamitas vilis. Coruscus aedificium adamo."
    },
    {
      "id": 19,
      "user_id": 19,
      "title": "Solitudo abduco armo aeneus calculus vetus asporto audentia debilito conatus universe.",
      "body": "Caput tibi audeo. Molestiae patrocinor delectus. Qui aro culpo. Summa usque arbor. Cubitum facilis tum. Voluptatem aggredior deduco. Eum vilis somnus. Qui sapiente barba. Confero asper curto. Eum argentum statua. Audax annus sint. Vulnus neque barba. Centum urbs solvo. Agnitio aut una. Vel ipsum aspicio. Auditor quae catena. Creptio derelinquo degero. Vae somniculosus adiuvo. Tolero sufficio derideo. Creo voco curis. Illum angelus crastinus. Vicissitudo avarus comparo. Varietas et triumphus. Voluptate depulso arbor. Eaque tamen adulatio. Pecco sperno labore. Clamo cum valde. Acsi vomer deludo. Quis currus concido."
    },
    {
      "id": 20,
      "user_id": 20,
      "title": "Delibero demergo umquam cur solitudo curiositas vulnus tardus textilis volaticus incidunt adulatio consectetur.",
      "body": "Corrumpo vitiosus cervus. Corrigo in cometes. Basium vomer blandior. Strenuus coadunatio aeneus. Maxime spargo cuppedia. Degero cenaculum ascit. Sint chirographum pecus. Talio solvo toties. Demens aegre celer. Ceno sopor tracto. Capto cohibeo toties. Patruus confugo accommodo. Admoneo conturbo calculus. Aegrus ustulo considero. Ut dolorum quia. Stillicidium decet aut. Basium voluptas deserunt. Auditor cupressus subseco. Paens adiuvo vulpes. Exercitationem appello facere."
    },
    {
      "id": 21,
      "user_id": 23,
      "title": "Placeat veritas credo vel maxime cado vir dolores.",
      "body": "Attonbitus deficio curtus. Sollers eos amor. Acsi chirographum vero. Expedita condico ultra. Cognomen turbo bibo. Deduco sit soleo. Valetudo temperantia thymbra. Consequatur conduco consectetur. Apto et stabilis. Vinum vomito cras. Absconditus sustineo arca. Eaque usque nihil. Tantillus unde cresco. Tantillus claro minus. Advoco ustilo vae. Amita colloco velum. Traho crapula vulgivagus. Repellat trans depereo. Amitto pariatur combibo."
    },
    {
      "id": 22,
      "user_id": 23,
      "title": "Tribuo viridis vacuus tempore cornu crebro distinctio cultellus aeternus demulceo calco id voluptas odit.",
      "body": "Ascit stillicidium repellat. Omnis aeneus creator. Solutio exercitationem triginta. Sono amplexus adflicto. Sit deserunt et. Carcer thesis decumbo. Depromo utroque vomer. Quia communis cena. Atqui spiculum eveniet. Cogo utroque theologus. Adduco confero abscido. Verbera creta cernuus. Tredecim dedico placeat. Ut conor cur. Possimus tibi tunc. Amor reiciendis vulgaris. Aliquid termes ante. Vigor deputo alii. Fugiat tot claudeo. Custodia conicio ea. Audax turpis compono. Asporto adficio acerbitas. Dolor certo admoveo. Sursum confero clibanus. Defigo agnitio vulgivagus. Civis subito dolor. Deorsum curatio tepidus. Subvenio caute coerceo."
    },
    {
      "id": 45,
      "user_id": 45,
      "title": "Vapulus tribuo aegrus molestias solum auris tamisium magni vinum creo arma adstringo amplexus corporis varius consequatur custodia vel.",
      "body": "Velum volubilis verumtamen. Valens ipsa cogo. Et paulatim correptius. Velit calculus suus. Agnosco vomito aggredior. Delinquo torrens deputo. Cubitum magni trucido. Torrens terreo suffragium. Molestias surculus conduco. Ulciscor voluntarius degenero. Spero tum repudiandae. Advenio sonitus comptus. Annus caelum tergeo. Spiculum crebro utique. Caveo dolorum consequuntur. Nobis sed aggredior. Decumbo aqua stella. Auctus aetas suus. Sumptus ultra ante."
    },
    {
      "id": 26,
      "user_id": 28,
      "title": "Sulum patria crur adfectus cunabula cruciamentum defetiscor accommodo vapulus caries antiquus xiphias volva cultura curis aliqua.",
      "body": "Suspendo ventosus varietas. Nemo consequatur atrocitas. Deleo cernuus cras. Administratio excepturi nihil. Tepesco vivo consectetur. Tepidus ut contego. Vis totidem comprehendo. Necessitatibus virtus adstringo. Esse urbs vehemens. Demoror patrocinor canto. Tenus vulariter vorago. Aegrotatio spiculum curo. Sopor ait clementia. Recusandae auris tergiversatio. Pauper enim dolor. Comminor termes taceo."
    },
    {
      "id": 28,
      "user_id": 31,
      "title": "Tenax debitis aut apud trans alias aer impedit caterva ademptio tener verbera torrens catena volva dolore contra ullus.",
      "body": "Aut triginta laudantium. Tempus aggredior saepe. Cavus dolor laborum. Casus abbas curvus. Pauper nihil tristis. Vorax veritas certe. Cinis solvo auris. Perspiciatis comparo cinis. Uxor et decimus. Statim animi dens. Copia ascit depromo. Atque occaecati alienus. Acerbitas dolor undique. Error sonitus tutamen. Tremo amaritudo confugo. Autem nisi venustas. Debeo umbra numquam. Suscipit animadverto aut. Attero aestivus sumptus. Aestus bardus abeo. Taedium dedico totus. Tremo concido suscipit. Viridis unde pecunia. Depono vacuus aetas. Valetudo repudiandae denuncio."
    },
    {
      "id": 29,
      "user_id": 32,
      "title": "Iure vel a vel brevis solio copiose ad despirmatio vergo caritas cras defetiscor.",
      "body": "Approbo facere vado. Amicitia nemo terminatio. Labore appositus tergum. Aro viduata ipsum. Corona torrens somnus. Corroboro vivo optio. Tardus ad culpo. Bestia dolore sit. Vae uredo aspernatur. Terga vitium confero. Deprecator volup copiose. Astrum vomica aestivus. Sumo bene dolorem. Alo ultio venustas. Defigo subito reprehenderit. Contabesco spes aro. Tollo explicabo eaque. Sollicito qui circumvenio. Arto acies via. Copiose carus vicissitudo. Vel volaticus eos. Acquiro apto cotidie. Odio utrimque crustulum. Ago averto cavus. Architecto tum torqueo. Cura crur sursum. Sufficio arma credo. Optio beatae clibanus. Verto quaerat vicinus."
    },
    {
      "id": 31,
      "user_id": 34,
      "title": "Certo consequatur ullam cibus vita virga omnis blanditiis contra decerno currus ascisco artificiose sufficio adduco qui bibo tubineus tactus.",
      "body": "Utrum ducimus coniuratio. Illo villa libero. Adiuvo sortitus subiungo. Iusto validus capitulus. Cimentarius dolorem sulum. Aut assentator soluta. Copiose temperantia utique. Tergo ulciscor talio. Aequitas campana suffragium. Omnis est somniculosus. Adhuc perspiciatis adsuesco. Vinum conduco aedificium. Bestia cupiditate tracto. Accedo sub ventito. Tandem vorax officia. Tametsi derelinquo cohors. Depono exercitationem uterque. Bardus cernuus demoror."
    },
    {
      "id": 32,
      "user_id": 35,
      "title": "Cohors conforto alias vallum aut spiritus curiositas cinis thymum virtus tandem conculco qui derelinquo.",
      "body": "Decor censura ater. Crepusculum contego damnatio. Et crepusculum texo. Artificiose versus cumque. Candidus tyrannus eum. Possimus tener artificiose. Audacia totus vicissitudo. Dignissimos subiungo absum. Pectus sponte quaerat. Sunt admoneo alius. Tempus demens civitas. Coadunatio creator traho. Video avoco tergeo. Et angustus ad. Perspiciatis statua vae. Suscipit ullam depopulo. Calculus atrocitas aureus. Patruus dolor calamitas. Blandior anser demum. Ullam tamen arbustum. Aliquid atrocitas ratione. Chirographum minus quaerat. Caute audacia tenetur. Ultra fugiat colloco. Caste vereor desidero. Ambitus depereo vicissitudo. Cito deduco amiculum."
    },
    {
      "id": 33,
      "user_id": 36,
      "title": "Deserunt suffoco et atque cibo aureus quidem voluptatem tam universe colloco valde facere eius reprehenderit benigne necessitatibus vinculum utrimque.",
      "body": "Deleo trucido aro. Animi arbustum atrocitas. Deludo clamo repellendus. Universe barba spes. Qui viscus beatae. Animus adduco stella. Numquam adulatio arceo. Tubineus volup viduata. Earum qui commodo. Amissio cavus magni. Video bellum utrimque. Denuo placeat audacia. Armo casso ut. Decumbo pecunia modi. Tibi deprecator adduco. Hic pauci coerceo."
    },
    {
      "id": 117,
      "user_id": 109,
      "title": "Vespillo cibo suggero sopor venio tenetur.",
      "body": "Terminatio aestas sed. Vereor vox alius. Alveus caste addo. Caelum votum cimentarius. Sui suppono balbus. Commodo patior aeger. Super umquam suus. Tubineus tenetur timidus. Atrocitas voluptatem addo. Vulnero torrens mollitia. Tolero eum tres. Cum ante vel. Tumultus peior censura. Cresco teres doloribus. Valde altus deduco."
    },
    {
      "id": 34,
      "user_id": 36,
      "title": "Cogito patior adultus caries aestus urbanus totus vehemens argentum taedium defero ullus conqueror speciosus.",
      "body": "Creo defungo repellat. Earum sodalitas deporto. Dolorem denique desino. Spectaculum collum tergiversatio. Tego cognomen celer. Assumenda aut sint. Aut umerus corona. Eaque sodalitas demergo. Theologus nihil armo. Contego quia averto. Arceo nam solvo. Uberrime aut dolore. Vulnus cauda itaque. Stips viridis stultus. Cometes qui crepusculum. Clamo anser atrocitas. Sit approbo somniculosus. Abstergo vorago curriculum. Usque ambitus cornu. Capitulus vix torrens. Trucido voluptatibus ara. Incidunt tametsi argentum. In vultuosus spiculum. Trado qui temporibus."
    },
    {
      "id": 38,
      "user_id": 39,
      "title": "Vesco aptus articulus animadverto sodalitas sto vilicus cum autem ventosus terebro dolore cibo alo tertius sumo illo crux tego.",
      "body": "Suus suasoria temporibus. Defessus excepturi admiratio. Reiciendis suscipit thermae. Clam molestias cui. Tantillus degero solutio. Speciosus ademptio cado. Tenetur supra dignissimos. Celebrer cohaero xiphias. Desidero laudantium constans. Voro ter voluptatem. Conqueror volubilis aestivus. Non decor adsum. Baiulus quod celo. Conduco culpa vinitor. Conicio cultura voluptate. Thesis deserunt undique. Supellex alioqui caelum. Stillicidium absorbeo tabernus. Despecto ager ante. Ambitus censura depereo. Tenuis sopor assentator."
    },
    {
      "id": 39,
      "user_id": 40,
      "title": "Tener coniuratio arcus villa clamo ubi laboriosam abutor tenax veritatis veniam deduco velut compono mollitia possimus supra.",
      "body": "Cado quam vinum. Ut caries demonstro. Sui cras volo. Ambulo valeo versus. Accusamus mollitia accommodo. Sit magnam quia. Cedo sustineo comminor. Soleo thalassinus adfero. Demulceo angustus consequatur. Vobis debeo patria. Turpis inventore tribuo. Excepturi cubitum vero. Curia xiphias eum. Teres harum bene. Vitae commodo non. Decens demulceo adduco. Animadverto viduata dolor. Colo velociter adfectus. Culpo pecto crinis. Victoria ascit bibo. Tunc cupiditas carbo. Stella adinventitias quibusdam. Avoco animus vulariter. Accedo accusator temptatio. Cruentus capio vinco. Capto vestigium virgo. Subnecto artificiose ascit. Auctor depopulo armarium."
    },
    {
      "id": 40,
      "user_id": 40,
      "title": "Repellat tumultus aro dolores patria vigilo.",
      "body": "Qui cauda advoco. Iure praesentium canis. Unus neque tabella. Aiunt deludo vulgo. Victoria solio censura. Synagoga triginta crebro. Cultura compono a. Strenuus synagoga concido. Et aptus facere. Demonstro quo delibero. Caveo solio voluptatum. Voluptatibus animadverto audio. Defetiscor ocer trans. Desino conduco vitium. Caelestis suus comitatus. Vinitor cubo velociter. Defluo tepesco addo. Aut dolor approbo. Vix comis volup. Conspergo temporibus qui. Desidero sint comedo. Occaecati nisi claustrum. Vado torrens caute. Sollicito creator caterva. Termes celebrer quidem."
    }
  ]
}